{
  "@context": [
    "http://www.w3.org/ns/hydra/context.jsonld",
    "http://schema.org",
    {
      "@base": "https://api.example.com/"
    }
  ],
  "id": "apartments/1",
  "type": ["Apartment", "PartialCollectionView"],
  "hasMap": {
    "type": "URL",
    "image": "floorplan.jpg"
  },
  "member": [
    {
      "id": "apartments/1/rooms/3",
      "type": ["Room", "Collection"],
      "amenityFeature": "Kitchen",
      "member": [
        {
          "id": "apartments/1/rooms/1/thermometer/1",
          "type": "Thermometer",
          "temperature": {
            "type": "QuantitativeValue",
            "unitText": "°C",
            "value": 23
          }
        },
        {
          "id": "apartments/1/rooms/1/thermostat/1",
          "type": "Thermostat",
          "temperature": {
            "type": "QuantitativeValue",
            "unitText": "°C",
            "value": 23
          }
        }
      ]
    },
    {
      "id": "apartments/1/rooms/3",
      "type": "Room",
      "amenityFeature": "Laundry Storage"
    },
    {
      "id": "apartments/1/rooms/3",
      "type": "Room",
      "amenityFeature": "1/2 Bath"
    },
    {
      "id": "apartments/1/rooms/4",
      "type": "Room",
      "amenityFeature": "Formal Living"
    },
    {
      "id": "apartments/1/rooms/5",
      "type": ["Room", "Collection"],
      "amenityFeature": "Entrance",
      "member": {
        "id": "apartments/1/rooms/5/thermometer/1",
        "type": "Thermometer",
        "temperature": {
          "type": "QuantitativeValue",
          "unitText": "°C",
          "value": 22.2
        }
      }
    },
    {
      "id": "apartments/1/rooms/6",
      "type": ["Room", "Collection"],
      "amenityFeature": "Family",
      "member": [
        {
          "id": "apartments/1/rooms/6/thermometer/1",
          "type": "Thermometer",
          "temperature": {
            "type": "QuantitativeValue",
            "unitText": "°C",
            "value": 22.2
          }
        },
        {
          "id": "apartments/1/rooms/6/thermometer/1",
          "type": "Thermometer",
          "temperature": {
            "type": "QuantitativeValue",
            "unitText": "°C",
            "value": 22.3
          }
        },
        {
          "id": "apartments/1/rooms/6/thermometer/1",
          "type": "Thermometer",
          "temperature": {
            "type": "QuantitativeValue",
            "unitText": "°C",
            "value": 22.8
          }
        }
      ]
    }
  ],
  "numberOfRooms": 8,
  "petsAllowed": false,
  "totalItems": "42",
  "view": {
    "id": "apartments/1/rooms?page=2",
    "type": "PartialCollectionView",
    "first": "apartments/1/rooms?page=1",
    "last": "apartments/1/rooms?page=10",
    "next": "apartments/1/rooms?page=3",
    "previous": "apartments/1/rooms?page=1"
  }
}
